










This file is made with Tom's Planner. To open this file please visit the website www.tomsplanner.com and click the 'open tool' link. This will enable you to open and view this schedule.























































































{"jsonversion":13,"settings":{"defaultzoom":8,"plugins":{"groupduration":{"active":true},"specialcolumns":{"active":true}}},"timeline":{"activeHourFrom":9,"activeHourTo":17,"type":"day","firstWeekDay":1,"showYear":true,"showMonth":true,"showWeekNr":true,"showDate":true,"showWeekDay":true,"hideWeekendDays":true,"timeFormat":"24hour","showHour":false,"showMinutes":false,"markToday":false,"leftBorderDate":"07/04/2016 09:00:00 GMT","activeDays":[false,true,true,true,true,true,false],"shadeDays":[false,false,false,false,false,false,false]},"nature":"tomsplannermodel","columns":[{"colwidth":30,"type":"autonumber","full":"Lp."},{"colwidth":325,"indent":true,"type":"text","full":"Nazwa zadania"},{"colwidth":83,"type":"duration"},{"colwidth":55,"type":"startdate"},{"colwidth":55,"type":"enddate"},{"colwidth":41,"type":"trafficlight","full":"Status","defaultvalue":1},{"colwidth":134,"type":"text","full":"Osoba odpowiedzialna"}],"metadata":[{"label":"Projectname:","labelvalue":"NavSystem"},{"label":"Date:","labelvalue":"01-10-2016"},{"label":"Comments:","labelvalue":"&nbsp;"}],"referencedate":{"visible":false,"refdate":"08/25/2016 17:00:00 GMT"},"legenda":{"periods":[{"label":"Ukończenie etapu","type":15},{"label":"Ukończnie pod-etapu","type":27},{"label":"Zadania dla zarządu","type":44},{"label":"Zadania dla zespołu","type":21},{"label":"Firmy zewnętrzne","type":23}],"symbols":[{"label":"Milestone","type":89}],"bolDisplay":true},"logo":{"bolshow":true,"filename":"dummy.gif","height":68},"printsetup":{"format":"A4","orientation":"landscape","colorscheme":"original","zoomtofit":true},"visualGrid":{"nature":"grid","id":"grid","lastID":170,"kids":[{"nature":"fase","id":"grid_1","foldStatus":false,"type":1,"kids":[{"nature":"fase","id":"grid_2","foldStatus":false,"type":4,"kids":[{"nature": "activity","id":"grid_3","autonumber":"1","indent":0,"kids":[{"nature":"period","kids":[],"id":"grid_106","type":15,"duration":40,"durationtype":"day","startmoment":"07/11/2016 09:00:00 GMT","finishmoment":"08/05/2016 17:00:00 GMT","label":"Planowanie"}],"label":[{},{"full":"Planowanie"},{},{},{},{"colvalue":1},{"full":""}]},{"nature": "activity","id":"grid_90","autonumber":"1.1","indent":0,"kids":[{"nature":"period","kids":[],"id":"grid_91","type":44,"duration":2,"durationtype":"day","startmoment":"07/11/2016 09:00:00 GMT","finishmoment":"07/11/2016 17:00:00 GMT"}],"label":[{},{"full":"Podsumowanie pomysłów"},{},{},{},{"colvalue":3},{"full":""}]},{"nature": "activity","id":"grid_96","autonumber":"1.2","indent":0,"kids":[{"nature":"period","kids":[],"id":"grid_97","type":44,"duration":9,"durationtype":"day","startmoment":"07/11/2016 13:00:00 GMT","finishmoment":"07/15/2016 17:00:00 GMT"}],"label":[{},{"full":"Przygotowanie dokumentu wizji"},{},{},{},{"colvalue":3},{"full":""}]},{"nature": "activity","id":"grid_94","autonumber":"1.3","indent":0,"kids":[{"nature":"period","kids":[],"id":"grid_95","type":44,"duration":18,"durationtype":"day","startmoment":"07/12/2016 09:00:00 GMT","finishmoment":"07/22/2016 17:00:00 GMT"}],"label":[{},{"full":"Organizacja miejsca pracy (biura)"},{},{},{},{"colvalue":1},{"full":""}]},{"nature": "activity","id":"grid_89","autonumber":"1.4","indent":0,"kids":[{"nature":"period","kids":[],"id":"grid_92","type":44,"duration":28,"durationtype":"day","startmoment":"07/12/2016 09:00:00 GMT","finishmoment":"07/29/2016 17:00:00 GMT"}],"label":[{},{"full":"Stworzenie zespołu"},{},{},{},{"colvalue":1},{"full":""}]},{"nature": "activity","id":"grid_4","autonumber":"1.5","indent":0,"kids":[{"nature":"period","kids":[],"id":"grid_5","type":44,"duration":6,"durationtype":"day","startmoment":"08/01/2016 09:00:00 GMT","finishmoment":"08/03/2016 17:00:00 GMT"}],"label":[{},{"full":"Podział pracy"},{},{},{},{"colvalue":1},{"full":""}]},{"nature": "activity","id":"grid_104","autonumber":"1.6","indent":0,"kids":[{"nature":"period","kids":[],"id":"grid_105","type":44,"duration":4,"durationtype":"day","startmoment":"08/03/2016 17:00:00 GMT","finishmoment":"08/05/2016 17:00:00 GMT"}],"label":[{},{"full":"Wprowadzenie ostateczynch zmian do dokomentacji"},{},{},{},{"colvalue":1},{"full":""}]}]},{"nature":"fase","id":"grid_6","foldStatus":false,"type":1,"kids":[{"nature": "activity","id":"grid_7","autonumber":"2","indent":0,"kids":[{"nature":"period","kids":[],"id":"grid_123","type":15,"duration":120,"durationtype":"day","startmoment":"08/08/2016 09:00:00 GMT","finishmoment":"10/28/2016 17:00:00 GMT","label":"Wstępna implementacja"},{"nature":"symbol","kids":[],"id":"grid_126","type":89,"moment":"10/28/2016 17:00:00 GMT"}],"label":[{},{"full":"Wstępna implementacja"},{},{},{},{"colvalue":1},{"full":""}]},{"nature": "activity","id":"grid_8","autonumber":"2.1","indent":0,"kids":[{"nature":"period","kids":[],"id":"grid_9","type":21,"duration":20,"durationtype":"day","startmoment":"08/08/2016 09:00:00 GMT","finishmoment":"08/19/2016 17:00:00 GMT"}],"label":[{},{"full":"Implementacja baz danych (zarządzania)"},{},{},{},{"colvalue":1},{"full":""}]},{"nature": "activity","id":"grid_117","autonumber":"2.2","indent":0,"kids":[{"nature":"period","kids":[],"id":"grid_119","type":21,"duration":20,"durationtype":"day","startmoment":"08/22/2016 09:00:00 GMT","finishmoment":"09/02/2016 17:00:00 GMT"}],"label":[{},{"full":"Implementacja oprogramowania na serwery zarządzające"},{},{},{},{"colvalue":1},{"full":""}]},{"nature": "activity","id":"grid_118","autonumber":"2.3","indent":0,"kids":[{"nature":"period","kids":[],"id":"grid_120","type":27,"duration":80,"durationtype":"day","startmoment":"09/05/2016 09:00:00 GMT","finishmoment":"10/28/2016 17:00:00 GMT","label":"Android"}],"label":[{},{"full":"Implementacja aplikacji mobilnej (Android)"},{},{},{},{"colvalue":1},{"full":""}]},{"nature": "activity","id":"grid_158","autonumber":"2.3.1","indent":1,"kids":[{"nature":"period","kids":[],"id":"grid_159","type":21,"duration":20,"durationtype":"day","startmoment":"09/05/2016 09:00:00 GMT","finishmoment":"09/16/2016 17:00:00 GMT"}],"label":[{},{"full":"Implementacja GUI"},{},{},{},{"colvalue":1},{"full":""}]},{"nature": "activity","id":"grid_163","autonumber":"2.3.2","indent":1,"kids":[{"nature":"period","kids":[],"id":"grid_164","type":21,"duration":20,"durationtype":"day","startmoment":"09/16/2016 17:00:00 GMT","finishmoment":"09/30/2016 17:00:00 GMT"}],"label":[{},{"full":"Implementacja logiki"},{},{},{},{"colvalue":1},{"full":""}]},{"nature": "activity","id":"grid_167","autonumber":"2.3.3","indent":1,"kids":[{"nature":"period","kids":[],"id":"grid_170","type":21,"duration":40,"durationtype":"day","startmoment":"09/30/2016 17:00:00 GMT","finishmoment":"10/28/2016 17:00:00 GMT"}],"label":[{},{"full":"Integracja z systemem zarządzania i bazami danych"},{},{},{},{"colvalue":1},{"full":""}]},{"nature": "activity","id":"grid_121","autonumber":"2.4","indent":0,"kids":[{"nature":"period","kids":[],"id":"grid_122","type":27,"duration":80,"durationtype":"day","startmoment":"09/05/2016 09:00:00 GMT","finishmoment":"10/28/2016 17:00:00 GMT","label":"iOS"}],"label":[{},{"full":"Implementacja aplikacji mobilnej (iOS)"},{},{},{},{"colvalue":1},{"full":""}]},{"nature": "activity","id":"grid_160","autonumber":"2.4.1","indent":1,"kids":[{"nature":"period","kids":[],"id":"grid_161","type":21,"duration":20,"durationtype":"day","startmoment":"09/05/2016 09:00:00 GMT","finishmoment":"09/16/2016 17:00:00 GMT"}],"label":[{},{"full":"Implementacja GUI"},{},{},{},{"colvalue":1},{"full":""}]},{"nature": "activity","id":"grid_165","autonumber":"2.4.2","indent":1,"kids":[{"nature":"period","kids":[],"id":"grid_166","type":21,"duration":20,"durationtype":"day","startmoment":"09/16/2016 17:00:00 GMT","finishmoment":"09/30/2016 17:00:00 GMT"}],"label":[{},{"full":"Implementacja logiki"},{},{},{},{"colvalue":1},{"full":""}]},{"nature": "activity","id":"grid_168","autonumber":"2.4.3","indent":1,"kids":[{"nature":"period","kids":[],"id":"grid_169","type":21,"duration":40,"durationtype":"day","startmoment":"09/30/2016 17:00:00 GMT","finishmoment":"10/28/2016 17:00:00 GMT"}],"label":[{},{"full":"Integracja z systemem zarządzania i bazami danych"},{},{},{},{"colvalue":1},{"full":""}]}]},{"nature":"fase","id":"grid_10","foldStatus":false,"type":4,"kids":[{"nature": "activity","id":"grid_11","autonumber":"3","indent":0,"kids":[{"nature":"period","kids":[],"id":"grid_12","type":15,"duration":280,"durationtype":"day","startmoment":"09/26/2016 09:00:00 GMT","finishmoment":"04/07/2017 17:00:00 GMT","label":"Testowanie"},{"nature":"symbol","kids":[],"id":"grid_127","type":89,"moment":"04/07/2017 17:00:00 GMT"}],"label":[{},{"full":"Testowanie"},{},{},{},{"colvalue":1},{"full":""}]},{"nature": "activity","id":"grid_13","autonumber":"3.1","indent":0,"kids":[{"nature":"period","kids":[],"id":"grid_15","type":21,"duration":30,"durationtype":"day","startmoment":"09/26/2016 09:00:00 GMT","finishmoment":"10/14/2016 17:00:00 GMT"}],"label":[{},{"full":"Implementacja automatycznego środowiska testowego"},{},{},{},{"colvalue":1},{"full":""}]},{"nature": "activity","id":"grid_20","autonumber":"3.2","indent":0,"kids":[{"nature":"period","kids":[],"id":"grid_21","type":21,"duration":20,"durationtype":"day","startmoment":"10/17/2016 09:00:00 GMT","finishmoment":"10/28/2016 17:00:00 GMT"}],"label":[{},{"full":"Stowrzenie przykładowych baz danych"},{},{},{},{"colvalue":1},{"full":""}]},{"nature": "activity","id":"grid_139","autonumber":"3.3","indent":0,"kids":[{"nature":"period","kids":[],"id":"grid_162","type":27,"duration":260,"durationtype":"day","startmoment":"09/26/2016 09:00:00 GMT","finishmoment":"03/24/2017 17:00:00 GMT","label":"Budowa fizycznego środowiska testowego"}],"label":[{},{"full":"Stworzenie fizycznego środowiska testowego"},{},{},{},{"colvalue":1},{"full":""}]},{"nature": "activity","id":"grid_16","autonumber":"3.3.1","indent":1,"kids":[{"nature":"period","kids":[],"id":"grid_18","type":23,"duration":200,"durationtype":"day","startmoment":"09/26/2016 09:00:00 GMT","finishmoment":"02/10/2017 17:00:00 GMT"}],"label":[{},{"full":"Budowa pokazowej hali do testów"},{},{},{},{"colvalue":1},{"full":""}]},{"nature": "activity","id":"grid_124","autonumber":"3.3.2","indent":1,"kids":[{"nature":"period","kids":[],"id":"grid_125","type":23,"duration":20,"durationtype":"day","startmoment":"02/13/2017 09:00:00 GMT","finishmoment":"02/24/2017 17:00:00 GMT"}],"label":[{},{"full":"Uposarzenie hali (półki/meble)"},{},{},{},{"colvalue":1},{"full":""}]},{"nature": "activity","id":"grid_140","autonumber":"3.3.3","indent":1,"kids":[{"nature":"period","kids":[],"id":"grid_141","type":23,"duration":40,"durationtype":"day","startmoment":"02/27/2017 09:00:00 GMT","finishmoment":"03/24/2017 17:00:00 GMT"}],"label":[{},{"full":"Instalacja niezbędnej infrastruktury IT"},{},{},{},{"colvalue":1},{"full":""}]},{"nature": "activity","id":"grid_128","autonumber":"3.4","indent":0,"kids":[{"nature":"period","kids":[],"id":"grid_129","type":21,"duration":20,"durationtype":"day","startmoment":"03/27/2017 09:00:00 GMT","finishmoment":"04/07/2017 17:00:00 GMT"}],"label":[{},{"full":"Wdrożenie projektu na halę testową"},{},{},{},{"colvalue":1},{"full":""}]}]},{"nature":"fase","id":"grid_22","foldStatus":false,"type":4,"kids":[{"nature": "activity","id":"grid_23","autonumber":"4","indent":0,"kids":[{"nature":"period","kids":[],"id":"grid_24","type":15,"duration":280,"durationtype":"day","startmoment":"09/26/2016 09:00:00 GMT","finishmoment":"04/07/2017 17:00:00 GMT","label":"Dalsza implementacjia"},{"nature":"symbol","kids":[],"id":"grid_142","type":89,"moment":"04/07/2017 17:00:00 GMT"}],"label":[{},{"full":"Rozwijanie projektu"},{},{},{},{"colvalue":1},{"full":""}]},{"nature": "activity","id":"grid_137","autonumber":"4.1","indent":0,"kids":[{"nature":"period","kids":[],"id":"grid_138","type":19,"duration":60,"durationtype":"day","startmoment":"09/26/2016 09:00:00 GMT","finishmoment":"11/04/2016 17:00:00 GMT"}],"label":[{},{"full":"Zatrudnienie nowych pracowników (WEB)"},{},{},{},{"colvalue":1},{"full":""}]},{"nature": "activity","id":"grid_25","autonumber":"4.2","indent":0,"kids":[{"nature":"period","kids":[],"id":"grid_29","type":21,"duration":210,"durationtype":"day","startmoment":"10/31/2016 09:00:00 GMT","finishmoment":"03/24/2017 17:00:00 GMT"}],"label":[{},{"full":"Rozwijanie aplikacji na iOS"},{},{},{},{"colvalue":1},{"full":""}]},{"nature": "activity","id":"grid_30","autonumber":"4.3","indent":0,"kids":[{"nature":"period","kids":[],"id":"grid_31","type":21,"duration":210,"durationtype":"day","startmoment":"10/31/2016 09:00:00 GMT","finishmoment":"03/24/2017 17:00:00 GMT"}],"label":[{},{"full":"Rozwijanie aplikacji na Androida"},{},{},{},{"colvalue":1},{"full":""}]},{"nature": "activity","id":"grid_32","autonumber":"4.4","indent":0,"kids":[{"nature":"period","kids":[],"id":"grid_33","type":21,"duration":210,"durationtype":"day","startmoment":"10/31/2016 09:00:00 GMT","finishmoment":"03/24/2017 17:00:00 GMT"}],"label":[{},{"full":"Rozwijanie oprogramowania serwerowego"},{},{},{},{"colvalue":1},{"full":""}]},{"nature": "activity","id":"grid_130","autonumber":"4.5","indent":0,"kids":[{"nature":"period","kids":[],"id":"grid_131","type":21,"duration":210,"durationtype":"day","startmoment":"10/31/2016 09:00:00 GMT","finishmoment":"03/24/2017 17:00:00 GMT"}],"label":[{},{"full":"Implementacja oprogramowania do zarządzania systemem (WEB))"},{},{},{},{"colvalue":1},{"full":""}]}]},{"nature":"fase","id":"grid_34","foldStatus":false,"type":1,"kids":[{"nature": "activity","id":"grid_35","autonumber":"5","indent":0,"kids":[{"nature":"period","kids":[],"id":"grid_37","type":15,"duration":40,"durationtype":"day","startmoment":"04/03/2017 09:00:00 GMT","finishmoment":"04/28/2017 17:00:00 GMT","label":"Badania"}],"label":[{},{"full":"Badanie rynkowe"},{},{},{},{"colvalue":1},{"full":""}]},{"nature": "activity","id":"grid_143","autonumber":"5.1","indent":0,"kids":[{"nature":"period","kids":[],"id":"grid_145","type":23,"duration":40,"durationtype":"day","startmoment":"04/03/2017 09:00:00 GMT","finishmoment":"04/28/2017 17:00:00 GMT"}],"label":[{},{"full":"Badanie rynkowe"},{},{},{},{"colvalue":1},{"full":""}]}]},{"nature":"fase","id":"grid_62","foldStatus":false,"type":2,"kids":[{"nature": "activity","id":"grid_63","autonumber":"6","indent":0,"kids":[{"nature":"period","kids":[],"id":"grid_65","type":15,"duration":110,"durationtype":"day","startmoment":"05/01/2017 09:00:00 GMT","finishmoment":"07/14/2017 17:00:00 GMT","label":"Testowanie i wdrożenie"}],"label":[{},{"full":"Testowanie i wdrożenie u klienta"},{},{},{},{"colvalue":1},{"full":""}]},{"nature": "activity","id":"grid_147","autonumber":"6.1","indent":0,"kids":[{"nature":"period","kids":[],"id":"grid_149","type":21,"duration":10,"durationtype":"day","startmoment":"05/01/2017 09:00:00 GMT","finishmoment":"05/05/2017 17:00:00 GMT"}],"label":[{},{"full":"Stworzenie planu rozmieszczenia infrastruktury"},{},{},{},{"colvalue":1},{"full":""}]},{"nature": "activity","id":"grid_148","autonumber":"6.2","indent":0,"kids":[{"nature":"period","kids":[],"id":"grid_150","type":23,"duration":60,"durationtype":"day","startmoment":"05/08/2017 09:00:00 GMT","finishmoment":"06/16/2017 17:00:00 GMT"}],"label":[{},{"full":"Zakup i instalacja sprzętu"},{},{},{},{"colvalue":1},{"full":""}]},{"nature": "activity","id":"grid_152","autonumber":"6.3","indent":0,"kids":[{"nature":"period","kids":[],"id":"grid_155","type":21,"duration":20,"durationtype":"day","startmoment":"06/19/2017 09:00:00 GMT","finishmoment":"06/30/2017 17:00:00 GMT"}],"label":[{},{"full":"Instalacja oprogramowania"},{},{},{},{"colvalue":1},{"full":""}]},{"nature": "activity","id":"grid_153","autonumber":"6.4","indent":0,"kids":[{"nature":"period","kids":[],"id":"grid_156","type":21,"duration":20,"durationtype":"day","startmoment":"07/03/2017 09:00:00 GMT","finishmoment":"07/14/2017 17:00:00 GMT"}],"label":[{},{"full":"Testowanie poprawności działania i wydajności"},{},{},{},{"colvalue":1},{"full":""}]},{"nature": "activity","id":"grid_151","autonumber":"6.5","indent":0,"kids":[{"nature":"period","kids":[],"id":"grid_154","type":21,"duration":20,"durationtype":"day","startmoment":"07/03/2017 09:00:00 GMT","finishmoment":"07/14/2017 17:00:00 GMT"}],"label":[{},{"full":"Szkolenia pracowników"},{},{},{},{"colvalue":1},{"full":""}]}]},{"nature":"fase","id":"grid_75","foldStatus":false,"type":1,"kids":[{"nature": "activity","id":"grid_76","autonumber":"7","indent":0,"kids":[{"nature":"period","kids":[],"id":"grid_77","type":15,"duration":520,"durationtype":"day","startmoment":"07/17/2017 09:00:00 GMT","finishmoment":"07/13/2018 17:00:00 GMT","label":"Rozwój i wsparcie"}],"label":[{},{"full":"Rozwój i wsparcie"},{},{},{},{"colvalue":1},{"full":""}]}]}]}]}}